%YAML 1.1
%TAG !u! tag:unity3d.com,2011:
--- !u!1045 &1
EditorBuildSettings:
  m_ObjectHideFlags: 0
  serializedVersion: 2
  m_Scenes:
  - enabled: 1
    path: Assets/Scenes/Menu.unity
    guid: 57eff6f686686984abf301cf4263e1c3
  - enabled: 1
    path: Assets/Scenes/ScenesOne.unity
    guid: c2bbbd48a9ada98478fa9200e09891e8
  - enabled: 1
    path: Assets/Scenes/ScenesTwo.unity
    guid: a3da8a699b487914bada0eb221a7956e
  - enabled: 1
    path: Assets/Scenes/End.unity
    guid: 8d56764c920394446ba3ff76c011adf2
  m_configObjects: {}
